Chapter 7 Machine Learning Part 2 | Applications of R in Healthcare
…
bigrams_separated <- ab_bigrams %>%
  separate(bigram, c("word1", "word2"), sep = " ")

bigrams_filtered <- bigrams_separated %>%
  filter(!word1 %in% mystopwords$word) %>%
  filter(!word2 %in% mystopwords$word)

bigram_counts <- bigrams_filtered %>% 
  count(word1, word2, sort = TRUE)

bigrams_united <- bigrams_filtered %>%
  unite(bigram, word1, word2, sep = " ")
bigrams_united

## # A tibble: 22,398 x 8
##    author datetimestamp       description heading id    language origin bigram  
##    <lgl>  <dttm>              <lgl>       <lgl>   <chr> <chr>    <lgl>  <chr>   
##  1 NA     2023-03-02 12:51:39 NA          NA      1     en       NA     growing~
##  2 NA     2023-03-02 12:51:39 NA          NA      1     en       NA     elderly~
##  3 NA     2023-03-02 12:51:39 NA          NA      1     en       NA     populat~
##  4 NA     2023-03-02 12:51:39 NA          NA      1     en       NA     incurab~
##  5 NA     2023-03-02 12:51:39 NA          NA      1     en       NA     chronic~
##  6 NA     2023-03-02 12:51:39 NA          NA      1     en       NA     continu~
##  7 NA     2023-03-02 12:51:39 NA          NA      1     en       NA     medical~
##  8 NA     2023-03-02 12:51:39 NA          NA      1     en       NA     service~
##  9 NA     2023-03-02 12:51:39 NA          NA      1     en       NA     mental ~
## 10 NA     2023-03-02 12:51:39 NA          NA      1     en       NA     impairm~
## # ... with 22,388 more rows
…
## Warning: Expected 3 pieces. Missing pieces filled with `NA` in 72761 rows [1, 2,
## 3, 4, 5, 6, 7, 8, 9, 10, 11, 12, 13, 14, 15, 16, 17, 18, 19, 20, ...].

trigrams_filtered <- trigrams_separated %>%
  filter(!word1 %in% mystopwords$word) %>%
  filter(!word2 %in% mystopwords$word) %>%
filter(!word3 %in% mystopwords$word)

trigram_counts <- trigrams_filtered %>% 
  count(word1, word2, word3, sort = TRUE)

trigram_counts

## # A tibble: 14,100 x 4
##    word1        word2        word3     n
##    <chr>        <chr>        <chr> <int>
##  1 ""           ""           NA     1082
##  2 "electronic" "health"     NA      173
##  3 "machine"    "learning"   NA      119
##  4 "health"     "records"    NA      108
##  5 "text"       "mining"     NA       91
##  6 "data"       "mining"     NA       76
##  7 "natural"    "language"   NA       68
##  8 "language"   "processing" NA       66
##  9 "medical"    "records"    NA       66
## 10 ""           "patients"   NA       64
## # ... with 14,090 more rows

trigrams_united <- trigrams_filtered %>%
  unite(trigram, word1, word2, word3, sep = " ")
trigrams_united

## # A tibble: 22,398 x 8
##    author datetimestamp       description heading id    language origin trigram 
##    <lgl>  <dttm>              <lgl>       <lgl>   <chr> <chr>    <lgl>  <chr>   
##  1 NA     2023-03-02 12:51:39 NA          NA      1     en       NA     growing~
##  2 NA     2023-03-02 12:51:39 NA          NA      1     en       NA     elderly~
##  3 NA     2023-03-02 12:51:39 NA          NA      1     en       NA     populat~
##  4 NA     2023-03-02 12:51:39 NA          NA      1     en       NA     incurab~
##  5 NA     2023-03-02 12:51:39 NA          NA      1     en       NA     chronic~
##  6 NA     2023-03-02 12:51:39 NA          NA      1     en       NA     continu~
##  7 NA     2023-03-02 12:51:39 NA          NA      1     en       NA     medical~
##  8 NA     2023-03-02 12:51:39 NA          NA      1     en       NA     service~
##  9 NA     2023-03-02 12:51:39 NA          NA      1     en       NA     mental ~
## 10 NA     2023-03-02 12:51:39 NA          NA      1     en       NA     impairm~
## # ... with 22,388 more rows
…
